address|carrosserie|categorie|couleur|cylindree|dat_immat|denomination|energy|firstname|immat|marque|name|places|poids|puissance|type_variante_version|vin
3822 Omar Square Suite 257 Port Emily, OK 43251|45-1743376|34-7904216|LightGoldenRodYellow|3462|2012-05-03|Enhanced well-modulated moderator|37578077|Jerome|OVC-568|Williams Inc|Smith|32|3827|110|Inc, 92-3625175, 79266482|9780082351764
974 Byrd Mountains New Jennifer, IL 01612|03-0258606|71-7143342|Snow|4837|2019-06-14|Right-sized secondary array|15895400|Paul|859 GZP|Ross PLC|Olson|9|5870|298|LLC, 37-7112501, 39890658|9781246585674
604 Willis View Suite 279 Hansenview, NY 26033|26-7045508|16-3556230|CadetBlue|1245|1988-11-29|Balanced intangible portal|99868567|Jose|2-2270C|Gillespie PLC|Gomez|33|3504|406|PLC, 67-9571998, 92859586|9781027382348
9254 Alex Spurs Guerreroborough, CA 92849|33-0120430|48-3676141|Aquamarine|6591|1972-02-16|Public-key multi-state portal|00036238|Melissa|3U QE479|Jordan and Sons|Perry|42|6790|274|Inc, 46-5693739, 40786551|9781963521054
1076 Richardson Ferry Apt. 489 Georgefort, WA 80609|15-9017493|43-4456544|OldLace|4048|1924-03-24|Innovative bifurcated structure|61597433|David|HNE 523|Kane, Owens and Ruiz|Walsh|4|1113|367|PLC, 27-4457025, 16381230|9781704558639
2286 Chambers Mountain Apt. 678 Bergerborough, RI 20663|30-6116142|86-2929434|Magenta|1603|1906-11-11|Enterprise-wide homogeneous archive|34766569|Travis|8HX M57|Gutierrez and Sons|Bates|43|8513|500|LLC, 54-8683849, 13697730|9780576655231
379 James Estates South Timothyland, KY 25223|56-5056110|63-5034092|RoyalBlue|2395|1933-04-09|Networked asynchronous architecture|77613059|Johnny|57-QF04|Ferguson, Cervantes and Ross|Burns|16|3549|74|LLC, 91-1247104, 50766970|9781169118010
3909 Tran Station Port Brianmouth, IL 21645|15-5272742|51-8265228|Black|7515|1920-06-07|Synchronized systematic encryption|56249798|Scott|8AE 879|Mckay PLC|Gilbert|5|8910|110|and Sons, 74-6886891, 38494925|9781826343274
81945 Maxwell Harbor Apt. 426 West Deborah, GA 74368|12-1245648|83-0657526|PapayaWhip|3254|1908-01-17|Open-architected demand-driven interface|28439073|James|DZ8 9969|Matthews Inc|Mendoza|18|6394|314|and Sons, 55-8906993, 20894474|9781520070520
6424 Roy Point Apt. 072 East Alison, FL 91097|54-0826937|50-2284125|Bisque|778|1916-05-12|Cross-group coherent process improvement|90050824|Lauren|ESC-893|Davis-Davies|Hoffman|12|7203|276|Group, 23-9750084, 97983392|9781010901792
93558 Benjamin Inlet Apt. 565 East Rebecca, MO 60002|23-3593870|22-9054433|RosyBrown|2345|1972-05-09|Profit-focused directional orchestration|10910337|Jack|MCE-623|Cox, Ochoa and Brennan|Jones|24|5395|572|Ltd, 32-7037008, 76874505|9780292109285